id,y,,id,y,,
1,0.9,,1,0.89,,
2,0.914,,2,1,,
3,0.008,,3,0.01,,
4,0.912,,4,0.938,,
5,0.014,,5,0.006,,
6,0.008,,6,0.014,,
7,0,,7,0,,
8,0.896,,8,1,,
9,0.286,,9,0.016,,
10,0.88,,10,0.996,,
11,0.904,,11,1,,
12,0.02,,12,0,,
13,0.002,,13,0,,
14,0.034,,14,0.02,,
15,0.026,,15,0.012,,
16,0.176,,16,0.158,,
17,0.002,,17,0.006,,
18,0.062,,18,0.042,,
19,0.084,,19,0.066,,
20,0.004,,20,0.008,,
21,0.548,,21,0.63,,X
22,0.958,,22,1,,
23,0.01,,23,0.01,,
24,0.006,,24,0,,
25,0.944,,25,0.936,,
26,0.49,,26,0.452,,X
27,0.976,,27,1,,
28,0.892,,28,0.902,,
29,0.012,,29,0.012,,
30,0.938,,30,0.95,,
31,0.044,,31,0.05,,
32,0.034,,32,0.02,,
33,0.946,,33,1,,
34,0.93,,34,1,,
35,0.692,,35,0.788,,
36,0.756,,36,0.8,,
37,0.172,,37,0.24,,
38,0.816,,38,0.816,,
39,0.95,,39,0.998,,
40,0.898,,40,0.998,,
41,0.034,,41,0.02,,
42,0.154,,42,0.12,,
43,0.002,,43,0,,
44,0.008,,44,0.006,,
45,0.89,,45,1,,
46,0.002,,46,0.002,,
47,0.008,,47,0.008,,
48,0.024,,48,0.016,,
49,0.112,,49,0.196,,
50,0.042,,50,0.054,,
51,0.704,,51,0.738,,
52,0.138,,52,0.086,,
53,0.006,,53,0.008,,
54,0.014,,54,0.012,,
55,0.006,,55,0,,
56,0.002,,56,0,,
57,0.028,,57,0.082,,
58,0.918,,58,1,,
59,0.01,,59,0.012,,
60,0.952,,60,0.962,,
61,0.226,,61,0.268,,
62,0.512,,62,0.604,,X
63,0.026,,63,0.016,,
64,0.002,,64,0,,
65,0.848,,65,0.852,,
66,0.822,,66,1,,
67,0.984,,67,1,,
68,0.924,,68,1,,
69,0.394,,69,0.358,,
70,0.05,,70,0.042,,
71,0.06,,71,0.04,,
72,0.27,,72,0.316,,
73,0.142,,73,0.154,,
74,0.284,,74,0.268,,
75,0.93,,75,1,,
76,0.924,,76,1,,
77,0.004,,77,0,,
78,0.006,,78,0.006,,
79,0.176,,79,0.19,,
80,0.132,,80,0.002,,
81,0.652,,81,0.708,,
82,0.058,,82,0.102,,
83,0.052,,83,0.032,,
84,0.9,,84,1,,
85,0.39,,85,0.416,,X
86,0.994,,86,1,,
87,0.908,,87,0.906,,
88,0.096,,88,0.07,,
89,0.92,,89,1,,
90,0.002,,90,0.012,,
91,0.298,,91,0.228,,
92,0.948,,92,1,,
93,0.318,,93,0.28,,
94,0.726,,94,0.758,,
95,0.622,,95,0.988,,
96,0.914,,96,1,,
97,0.762,,97,0.668,,
98,0.51,,98,0.424,,
99,0.002,,99,0.006,,
100,0.064,,100,0.048,,
101,0.956,,101,1,,
102,0.864,,102,0.864,,
103,0.982,,103,0.992,,
104,0.938,,104,1,,
105,0.956,,105,1,,
106,0.718,,106,0.998,,
107,0.28,,107,0.214,,
108,0.808,,108,0.854,,
109,0.076,,109,0.132,,
110,0.906,,110,0.954,,
111,0.038,,111,0.052,,
112,0.968,,112,1,,
113,0.852,,113,0.998,,
114,0.012,,114,0.01,,
115,0.924,,115,0.998,,
116,0.984,,116,1,,
117,0.074,,117,0.082,,
118,0.24,,118,0.122,,
119,0.812,,119,0.996,,
120,0.022,,120,0.012,,
121,0.898,,121,0.998,,
122,0.424,,122,0.358,,
123,0.012,,123,0.004,,
124,0.012,,124,0.002,,
125,0.34,,125,0.366,,
126,0.736,,126,0.996,,
127,0.658,,127,0.718,,
128,0.086,,128,0.004,,
129,0.986,,129,1,,
130,0.864,,130,1,,
131,0.28,,131,0.38,,
132,0.002,,132,0.004,,
133,0.682,,133,0.786,,
134,0.016,,134,0.008,,
135,0.868,,135,0.946,,
136,0.01,,136,0,,
137,0.938,,137,1,,
138,0.734,,138,1,,
139,0.082,,139,0.062,,
140,0.892,,140,1,,
141,0.138,,141,0.098,,
142,0.592,,142,0.466,,
143,0.034,,143,0.044,,
144,0.048,,144,0.034,,
145,0.742,,145,1,,
146,0.97,,146,1,,
147,0.004,,147,0.002,,
148,0.012,,148,0.01,,
149,0.114,,149,0.112,,
150,0.894,,150,0.998,,
151,0.788,,151,0.816,,
152,0.682,,152,0.786,,
153,0.008,,153,0.022,,
154,0.018,,154,0.03,,
155,0.622,,155,0.654,,
156,0.95,,156,1,,
157,0.552,,157,0.606,,
158,0.818,,158,0.818,,
159,0.976,,159,1,,
160,0.912,,160,0.998,,
161,0.564,,161,0.542,,
162,0.92,,162,0.918,,
163,0.916,,163,1,,
164,0.8,,164,0.786,,
165,0.01,,165,0,,
166,0.88,,166,1,,
167,0.564,,167,0.568,,
168,0.742,,168,0.774,,
169,0.042,,169,0.046,,
170,0.388,,170,0.318,,
171,0.462,,171,0.598,,
172,0.82,,172,0.866,,
173,0.914,,173,1,,
174,0.39,,174,0.376,,
175,0.022,,175,0.02,,
176,0.068,,176,0.06,,
177,0.936,,177,1,,
178,0.982,,178,0.992,,
179,0.768,,179,1,,
180,0.508,,180,0.5,,
181,0.948,,181,0.956,,
182,0.836,,182,0.848,,
183,0.002,,183,0,,
184,0.772,,184,0.776,,
185,0.024,,185,0.018,,
186,0.086,,186,0.004,,
187,0.006,,187,0.008,,
188,0.524,,188,0.53,,
189,0.004,,189,0,,
190,0.448,,190,0.484,,
191,0.028,,191,0.038,,
192,0.888,,192,0.998,,
193,0.028,,193,0.006,,
194,0.7,,194,0.666,,
195,0.042,,195,0.046,,
196,0.952,,196,1,,
197,0.91,,197,1,,
198,0.51,,198,0.424,,
199,0.828,,199,0.82,,
200,0.072,,200,0.096,,
201,0.55,,201,0.528,,
202,0.208,,202,0.028,,
203,0.918,,203,0.928,,
204,0.686,,204,0.576,,
205,0.006,,205,0.01,,
206,0.708,,206,0.732,,
207,0.982,,207,0.988,,
208,0.048,,208,0.036,,
209,0.012,,209,0.012,,
210,0.016,,210,0.016,,
211,0.092,,211,0.094,,
212,0.846,,212,1,,
213,0.828,,213,0.814,,
214,0.448,,214,0.448,,
215,0.434,,215,0.472,,
216,0.968,,216,1,,
217,0.016,,217,0.002,,
218,0.38,,218,0.4,,
219,0.86,,219,0.828,,
220,0.742,,220,0.774,,
221,0.024,,221,0,,
222,0.866,,222,0.996,,
223,0,,223,0.002,,
224,0.864,,224,0.91,,
225,0.89,,225,1,,
226,0.428,,226,0.362,,
227,0.112,,227,0.196,,
228,0.592,,228,0.466,,
229,0.212,,229,0.032,,
230,0.22,,230,0.258,,
231,0.436,,231,0.492,,
232,0.006,,232,0,,
233,0.026,,233,0.036,,
234,0.88,,234,0.842,,
235,0.542,,235,0.744,,
236,0.052,,236,0.062,,
237,0.812,,237,1,,
238,0.68,,238,0.72,,
239,0.464,,239,0.448,,
240,0.286,,240,0.016,,
241,0.966,,241,0.996,,
242,0.694,,242,0.988,,
243,0.002,,243,0,,
244,0.082,,244,0.054,,
245,0.014,,245,0.002,,
246,0.024,,246,0.01,,
247,0.024,,247,0.012,,
248,0.038,,248,0,,
249,0.146,,249,0.106,,
250,0.116,,250,0.08,,
251,0.286,,251,0.28,,
252,0.046,,252,0.02,,
253,0.064,,253,0.016,,
254,0.79,,254,1,,
255,0.552,,255,0.564,,
256,0.42,,256,0.268,,
257,0.722,,257,0.746,,
258,0.748,,258,0.732,,
259,0,,259,0.004,,
260,0.054,,260,0.082,,
261,0.622,,261,0.572,,
262,0.914,,262,1,,
263,0.65,,263,0.734,,
264,0.322,,264,0.256,,
265,0.056,,265,0.064,,
266,0.206,,266,0.134,,
267,0.97,,267,0.966,,
268,0.8,,268,0.802,,
269,0.038,,269,0.02,,
270,0.058,,270,0.102,,
271,0.132,,271,0.128,,
272,0.002,,272,0,,
273,0.644,,273,0.74,,
274,0.848,,274,0.996,,
275,0.746,,275,0.79,,
276,0.868,,276,0.946,,
277,0.692,,277,0.788,,
278,0.028,,278,0.016,,
279,0.012,,279,0,,
280,0.638,,280,0.538,,
281,0.964,,281,1,,
282,0.38,,282,0.4,,
283,0,,283,0,,
284,0,,284,0,,
285,0.644,,285,0.764,,
286,0.042,,286,0.038,,
287,0.75,,287,1,,
288,0.264,,288,0.28,,
289,0,,289,0,,
290,0.86,,290,1,,
291,0.838,,291,0.868,,
292,0.686,,292,0.576,,
293,0.776,,293,0.844,,
294,0.762,,294,0.668,,
295,0.916,,295,1,,
296,0.464,,296,0.448,,
297,0.726,,297,0.72,,
298,0.004,,298,0.032,,
299,0.242,,299,0.268,,
300,0.914,,300,1,,
301,0.71,,301,0.994,,
302,0.01,,302,0.01,,
303,0.038,,303,0.018,,
304,0.416,,304,0.366,,
305,0.516,,305,0.696,,
306,0.1,,306,0,,
307,0.79,,307,0.754,,
308,0.646,,308,0.618,,
309,0.06,,309,0.04,,
310,0.932,,310,0.954,,
311,0.958,,311,1,,
312,0.014,,312,0.006,,
313,0.256,,313,0.312,,
314,0.822,,314,1,,
315,0.01,,315,0,,
316,0.94,,316,1,,
317,0.004,,317,0.002,,
318,0.03,,318,0.034,,
319,0,,319,0.002,,
320,0.55,,320,0.528,,
321,0.006,,321,0,,
322,0.708,,322,0.672,,
323,0.004,,323,0,,
324,0.828,,324,0.998,,
325,0.464,,325,0.676,,
326,0.194,,326,0.252,,
327,0.628,,327,0.756,,
328,0.924,,328,1,,
329,0.196,,329,0.216,,
330,0.934,,330,1,,
331,0.304,,331,0.208,,
332,0.88,,332,0.912,,
333,0.512,,333,0.604,,
334,0.128,,334,0.152,,
335,0.734,,335,0.664,,
336,0.06,,336,0.026,,
337,0.01,,337,0.006,,
338,0.656,,338,0.66,,
339,0.718,,339,0.706,,
340,0.928,,340,0.926,,
341,0.212,,341,0.032,,
342,0.864,,342,1,,
343,0.012,,343,0.004,,
344,0.912,,344,1,,
345,0.514,,345,0.58,,
346,0.026,,346,0.024,,
347,0.06,,347,0.026,,
348,0.034,,348,0.022,,
349,0.888,,349,1,,
350,0.316,,350,0.28,,
351,0.874,,351,0.88,,
352,0.614,,352,0.578,,
353,0.896,,353,0.996,,
354,0.878,,354,1,,
355,0.014,,355,0.004,,
356,0.03,,356,0.018,,
357,0.012,,357,0.022,,
358,0.002,,358,0.006,,
359,0,,359,0.002,,
360,0.914,,360,1,,
361,0.114,,361,0.112,,
362,0.918,,362,0.928,,
363,0.382,,363,0.428,,
364,0.096,,364,0.05,,
365,0.916,,365,1,,
366,0.942,,366,0.956,,
367,0.822,,367,0.802,,
368,0.006,,368,0.002,,
369,0.904,,369,1,,
370,0.006,,370,0.004,,
371,0.018,,371,0.028,,
372,0.216,,372,0.212,,
373,0.004,,373,0.008,,
374,0.138,,374,0.086,,
375,0.614,,375,0.578,,
376,0.684,,376,0.684,,
377,0.492,,377,0.548,,
378,0.854,,378,1,,
379,0.698,,379,0.752,,
380,0.172,,380,0.248,,
381,0.788,,381,0.83,,
382,0.02,,382,0.008,,
383,0.924,,383,0.95,,
384,0.936,,384,0.934,,
385,0.016,,385,0.012,,
386,0.02,,386,0.024,,
387,0.844,,387,1,,
388,0.298,,388,0.004,,
389,0.018,,389,0.026,,
390,0.556,,390,0.548,,
391,0.654,,391,0.732,,
392,0.546,,392,0.604,,
393,0.094,,393,0.004,,
394,0.68,,394,0.994,,
395,0.266,,395,0.276,,
396,0.836,,396,0.848,,
397,0.042,,397,0.012,,
398,0.906,,398,0.996,,
399,0.632,,399,0.722,,
400,0.95,,400,1,,
401,0.66,,401,1,,
402,0,,402,0,,
403,0.042,,403,0.042,,
404,0.222,,404,0.248,,
405,0.016,,405,0.008,,
406,0.018,,406,0.018,,
407,0.89,,407,1,,
408,0.806,,408,0.796,,
409,0.918,,409,1,,
410,0.622,,410,0.654,,
411,0.176,,411,0.12,,
412,0.014,,412,0,,
413,0.02,,413,0.018,,
414,0.876,,414,1,,
415,0.908,,415,0.992,,
416,0.734,,416,0.66,,
417,0.006,,417,0,,
418,0.944,,418,1,,
419,0.822,,419,0.998,,
420,0.012,,420,0.01,,
421,0.01,,421,0.006,,
422,0.748,,422,0.812,,
423,0.134,,423,0.114,,
424,0.856,,424,0.836,,
425,0.798,,425,1,,
426,0.624,,426,0.686,,
427,0.488,,427,0.582,,
428,0,,428,0.002,,
429,0.69,,429,0.754,,
430,0.09,,430,0.006,,
431,0.512,,431,0.604,,
432,0.188,,432,0.142,,
433,0.054,,433,0.082,,
434,0.006,,434,0,,
435,0.274,,435,0.302,,
436,0.646,,436,0.618,,
437,0.976,,437,1,,
438,0.85,,438,0.998,,
439,0.754,,439,0.77,,
440,0.07,,440,0.068,,
441,0.976,,441,1,,
442,0.872,,442,0.78,,
443,0.992,,443,1,,
444,0.004,,444,0.004,,
445,0.948,,445,0.968,,
446,0.916,,446,0.916,,
447,0.008,,447,0.002,,
448,0.67,,448,0.634,,
449,0.76,,449,0.754,,
450,0.564,,450,0.596,,
451,0.042,,451,0.042,,
452,0.18,,452,0.016,,
453,0.114,,453,0.074,,
454,0.9,,454,0.89,,
455,0.818,,455,0.968,,
456,0.962,,456,0.97,,
457,0.738,,457,0.784,,
458,0.032,,458,0.012,,
459,0.002,,459,0.006,,
460,0.116,,460,0.092,,
461,0.958,,461,0.958,,
462,0.868,,462,0.85,,
463,0.868,,463,0.88,,
464,0.694,,464,0.722,,
465,0.726,,465,0.68,,
466,0.032,,466,0.008,,
467,0.742,,467,0.756,,
468,0.03,,468,0.014,,
469,0.086,,469,0.004,,
470,0.892,,470,1,,
471,0.852,,471,0.856,,
472,0.224,,472,0.106,,
473,0.864,,473,0.998,,
474,0.224,,474,0.106,,
475,0.008,,475,0.002,,
476,0.02,,476,0.004,,
477,0.734,,477,0.844,,
478,0.728,,478,0.728,,
479,0.006,,479,0,,
480,0.264,,480,0.224,,
481,0.628,,481,0.756,,
482,0.794,,482,1,,
483,0.896,,483,1,,
484,0.714,,484,0.998,,
485,0.482,,485,0.448,,
486,0.014,,486,0.014,,
487,0.966,,487,0.996,,
488,0.036,,488,0.006,,
489,0.536,,489,0.48,,
490,0,,490,0,,
491,0.878,,491,0.924,,
492,0.54,,492,0.458,,
493,0.712,,493,0.72,,
494,0.66,,494,0.818,,
495,0.49,,495,0.452,,
496,0.95,,496,0.998,,
497,0.84,,497,0.87,,
498,0.65,,498,0.716,,
499,0.964,,499,0.948,,
500,0.036,,500,0.048,,
501,0.86,,501,0.996,,
502,0.824,,502,0.814,,
503,0.51,,503,0.424,,
504,0.102,,504,0.106,,
505,0.886,,505,1,,
506,0.006,,506,0.004,,
507,0.414,,507,0.468,,
508,0.482,,508,0.448,,
509,0.948,,509,0.968,,
510,0.416,,510,0.464,,
511,0.03,,511,0.11,,
512,0.942,,512,0.952,,
513,0.76,,513,0.688,,
514,0.098,,514,0.14,,
515,0.892,,515,0.998,,
516,0.976,,516,1,,
517,0.036,,517,0.006,,
518,0.042,,518,0.03,,
519,0.294,,519,0.276,,
520,0.104,,520,0.048,,
521,0.01,,521,0.004,,
522,0.628,,522,0.672,,
523,0.006,,523,0.002,,
524,0.012,,524,0.004,,
525,0,,525,0.002,,
526,0.004,,526,0.032,,
527,0.782,,527,0.748,,
528,0.006,,528,0.004,,
529,0.03,,529,0.034,,
530,0.026,,530,0.036,,
531,0.092,,531,0.032,,
532,0.674,,532,0.726,,
533,0.87,,533,0.846,,
534,0.002,,534,0,,
535,0.004,,535,0.008,,
536,0.808,,536,0.792,,
537,0.322,,537,0.256,,
538,0.176,,538,0.19,,
539,0.074,,539,0.006,,
540,0.838,,540,0.914,,
541,0.964,,541,0.95,,
542,0.742,,542,0.68,,
543,0.038,,543,0.024,,
544,0.05,,544,0.044,,
545,0.674,,545,0.726,,
546,0.828,,546,0.814,,
547,0.914,,547,0.824,,
548,0.092,,548,0.094,,
549,0.002,,549,0.006,,
550,0.416,,550,0.366,,
551,0.076,,551,0.042,,
552,0.018,,552,0,,
553,0.004,,553,0.004,,
554,0.006,,554,0.006,,
555,0.086,,555,0.134,,
556,0.01,,556,0.01,,
557,0.018,,557,0,,
558,0.006,,558,0.002,,
559,0.674,,559,0.698,,
560,0.02,,560,0,,
561,0.782,,561,1,,
562,0.046,,562,0.07,,
563,0.67,,563,0.634,,
564,0.08,,564,0.088,,
565,0.002,,565,0,,
566,0.938,,566,1,,
567,0.028,,567,0.018,,
568,0.222,,568,0.174,,
569,0.058,,569,0.058,,
570,0.618,,570,0.698,,
571,0.576,,571,0.59,,
572,0,,572,0,,
573,0.052,,573,0.006,,
574,0.014,,574,0.01,,
575,0.024,,575,0,,
576,0.012,,576,0.01,,
577,0.124,,577,0.096,,
578,0.032,,578,0.046,,
579,0.022,,579,0.012,,
580,0.002,,580,0,,
581,0.924,,581,1,,
582,0.024,,582,0.01,,
583,0.86,,583,0.996,,
584,0.97,,584,1,,
585,0.248,,585,0.262,,
586,0.81,,586,0.998,,
587,0.726,,587,0.68,,
588,0.542,,588,0.556,,
589,0.892,,589,0.944,,
590,0.812,,590,1,,
591,0.012,,591,0,,
592,0.006,,592,0,,
593,0.978,,593,1,,
594,0.54,,594,0.602,,
595,0.678,,595,0.742,,
596,0.924,,596,1,,
597,0.006,,597,0.006,,
598,0.662,,598,0.754,,
599,0.048,,599,0.028,,
600,0.022,,600,0.012,,
601,0.786,,601,0.816,,
602,0.018,,602,0.018,,
603,0.916,,603,1,,
604,0.124,,604,0.088,,
605,0.954,,605,0.988,,
606,0.002,,606,0,,
607,0.018,,607,0.018,,
608,0.03,,608,0.11,,
609,0.876,,609,1,,
610,0.302,,610,0.342,,
611,0.95,,611,0.996,,
612,0.416,,612,0.464,,
613,0.448,,613,0.484,,
614,0.878,,614,1,,
615,0.008,,615,0.004,,
616,0.012,,616,0.008,,
617,0.836,,617,0.848,,
618,0.95,,618,0.998,,
619,0.078,,619,0.074,,
620,0.018,,620,0.01,,
621,0.4,,621,0.396,,
622,0.004,,622,0.004,,
623,0.94,,623,0.922,,
624,0.008,,624,0.002,,
625,0.038,,625,0.024,,
626,0.656,,626,0.66,,
627,0.66,,627,0.686,,
628,0.91,,628,1,,
629,0.728,,629,0.728,,
630,0.434,,630,0.372,,
631,0.292,,631,0.15,,
632,0.294,,632,0.276,,
633,0.414,,633,0.468,,
634,0.228,,634,0.014,,
635,0.912,,635,0.998,,
636,0.122,,636,0.088,,
637,0.246,,637,0.298,,
638,0.068,,638,0.06,,
639,0.85,,639,0.802,,
640,0.002,,640,0.01,,
641,0.034,,641,0.02,,
642,0.644,,642,0.516,,
643,0.216,,643,0.28,,
644,0.668,,644,0.738,,
645,0.484,,645,0.302,,
646,0.238,,646,0.21,,
647,0.026,,647,0.028,,
648,0.114,,648,0.002,,
649,0.02,,649,0.008,,
650,0.006,,650,0.002,,
651,0.68,,651,1,,
652,0.124,,652,0.006,,
653,0.51,,653,0.656,,
654,0.012,,654,0.018,,
655,0.754,,655,0.802,,
656,0.526,,656,0.508,,
657,0.918,,657,0.954,,
658,0.104,,658,0.118,,
659,0.122,,659,0.088,,
660,0.004,,660,0,,
661,0.726,,661,0.68,,
662,0.092,,662,0.032,,
663,0.006,,663,0.004,,
664,0.136,,664,0.212,,
665,0.962,,665,1,,
666,0.01,,666,0.018,,
667,0,,667,0.002,,
668,0.794,,668,0.68,,
669,0.008,,669,0.008,,
670,0.044,,670,0.014,,
671,0.842,,671,0.844,,
672,0.79,,672,0.786,,
673,0.048,,673,0.034,,
674,0.388,,674,0.318,,
675,0.72,,675,1,,
676,0.004,,676,0.004,,
677,0.676,,677,0.998,,
678,0.726,,678,0.72,,
679,0.058,,679,0.102,,
680,0.73,,680,0.82,,
681,0.256,,681,0.224,,
682,0.014,,682,0.01,,
683,0.656,,683,0.696,,
684,0.866,,684,0.908,,
685,0.962,,685,0.966,,
686,0.128,,686,0.152,,
687,0.832,,687,0.888,,
688,0.6,,688,0.8,,
689,0.002,,689,0,,
690,0.4,,690,0.396,,
691,0.848,,691,0.996,,
692,0.222,,692,0.248,,
693,0.038,,693,0.028,,
694,0.756,,694,0.736,,
695,0.004,,695,0,,
696,0.004,,696,0.002,,
697,0.028,,697,0.026,,
698,0.774,,698,0.752,,
699,0.822,,699,1,,
700,0.458,,700,0.64,,
701,0.94,,701,1,,
702,0.638,,702,0.632,,
703,0.828,,703,0.814,,
704,0.018,,704,0.018,,
705,0.772,,705,0.998,,
706,0.552,,706,0.588,,
707,0.924,,707,0.998,,
708,0.114,,708,0.088,,
709,0.286,,709,0.28,,
710,0.32,,710,0.326,,
711,0.034,,711,0.02,,
712,0.056,,712,0.032,,
713,0.044,,713,0.024,,
714,0.906,,714,0.888,,
715,0.002,,715,0.01,,
716,0.004,,716,0,,
717,0.876,,717,0.878,,
718,0.038,,718,0.024,,
719,0.274,,719,0.284,,
720,0.32,,720,0.296,,
721,0.852,,721,0.806,,
722,0.944,,722,1,,
723,0.044,,723,0.05,,
724,0.008,,724,0.006,,
725,0.37,,725,0.338,,
726,0.94,,726,1,,
727,0.044,,727,0.014,,
728,0.026,,728,0.02,,
729,0.014,,729,0,,
730,0.988,,730,1,,
731,0.474,,731,0.376,,
732,0,,732,0.002,,
733,0.67,,733,0.634,,
734,0.916,,734,1,,
735,0.542,,735,0.556,,
736,0.012,,736,0,,
737,0.754,,737,0.77,,
738,0.374,,738,0.452,,
739,0.22,,739,0.15,,
740,0.704,,740,0.738,,
741,0.948,,741,1,,
742,0.882,,742,1,,
743,0,,743,0,,
744,0.604,,744,0.604,,
745,0.224,,745,0.244,,
746,0.822,,746,0.954,,
747,0.926,,747,1,,
748,0.716,,748,0.838,,
749,0.692,,749,0.788,,
750,0.554,,750,0.714,,
751,0.016,,751,0.012,,
752,0.01,,752,0.006,,
753,0.062,,753,0.016,,
754,0.622,,754,0.572,,
755,0.87,,755,0.874,,
756,0.494,,756,0.582,,
757,0.044,,757,0.056,,
758,0.748,,758,0.812,,
759,0.746,,759,0.684,,
760,0.03,,760,0.034,,
761,0.03,,761,0.014,,
762,0.986,,762,1,,
763,0.09,,763,0.088,,
764,0.262,,764,0.366,,
765,0.018,,765,0.018,,
766,0,,766,0,,
767,0.68,,767,1,,
768,0.742,,768,0.756,,
769,0.102,,769,0.138,,
770,0.458,,770,0.532,,
771,0.448,,771,0.592,,
772,0.812,,772,0.796,,
773,0.004,,773,0.02,,
774,0.014,,774,0.02,,
775,0.342,,775,0.304,,
776,0.188,,776,0.212,,
777,0.008,,777,0.004,,
778,0.09,,778,0.086,,
779,0.002,,779,0,,
780,0.598,,780,0.766,,
781,0.04,,781,0.024,,
782,0.114,,782,0.088,,
783,0.014,,783,0.002,,
784,0.044,,784,0.05,,
785,0.03,,785,0,,
786,0.878,,786,1,,
787,0.008,,787,0.008,,
788,0.012,,788,0.01,,
789,0.544,,789,0.716,,
790,0.796,,790,0.794,,
791,0.864,,791,0.998,,
792,0.922,,792,0.924,,
793,0.34,,793,0.366,,
794,0.016,,794,0.006,,
795,0.63,,795,0.734,,
796,0.042,,796,0.046,,
797,0.912,,797,1,,
798,0.856,,798,0.836,,
799,0.158,,799,0.156,,
800,0.532,,800,0.474,,
801,0.892,,801,1,,
802,0.002,,802,0,,
803,0.896,,803,1,,
804,0.072,,804,0.06,,
805,0.9,,805,0.922,,
806,0.988,,806,1,,
807,0.202,,807,0.216,,
808,0.864,,808,1,,
809,0.188,,809,0.012,,
810,0.568,,810,0.71,,
811,0.02,,811,0.018,,
812,0.08,,812,0.06,,
813,0.024,,813,0.018,,
814,0.094,,814,0.004,,
815,0.958,,815,0.962,,
816,0.058,,816,0.018,,
817,0.046,,817,0.02,,
818,0.812,,818,0.796,,
819,0.39,,819,0.176,,
820,0.032,,820,0.01,,
821,0.822,,821,0.802,,
822,0.034,,822,0.016,,
823,0.622,,823,0.662,,
824,0.92,,824,1,,
825,0.18,,825,0.016,,
826,0.01,,826,0,,
827,0.672,,827,0.626,,
828,0.45,,828,0.312,,
829,0.944,,829,1,,
830,0.828,,830,0.888,,
831,0.948,,831,0.968,,
832,0.624,,832,0.686,,
833,0.88,,833,0.842,,
834,0.238,,834,0.21,,
835,0.698,,835,0.748,,
836,0.642,,836,0.606,,
837,0.042,,837,0.038,,
838,0.64,,838,0.796,,
839,0.78,,839,0.82,,
840,0.846,,840,0.866,,
841,0.326,,841,0.028,,
842,0.684,,842,0.72,,
843,0.908,,843,1,,
844,0.74,,844,0.734,,
845,0.014,,845,0.006,,
846,0.93,,846,1,,
847,0.09,,847,0.104,,
848,0.112,,848,0.126,,
849,0.376,,849,0.4,,
850,0.514,,850,0.532,,
851,0.016,,851,0.016,,
852,0.67,,852,0.696,,
853,0.166,,853,0.18,,
854,0.416,,854,0.58,,
855,0.664,,855,0.548,,
856,0.084,,856,0.054,,
857,0.086,,857,0.134,,
858,0.876,,858,0.998,,
859,0.974,,859,1,,
860,0.322,,860,0.422,,
861,0.062,,861,0.016,,
862,0.004,,862,0,,
863,0.02,,863,0.026,,
864,0.79,,864,1,,
865,0.754,,865,1,,
866,0.748,,866,0.732,,
867,0.652,,867,0.708,,
868,0.892,,868,1,,
869,0.894,,869,1,,
870,0.032,,870,0.046,,
871,0.898,,871,0.998,,
872,0.84,,872,0.874,,
873,0.808,,873,0.854,,
874,0.576,,874,0.566,,
875,0.006,,875,0.008,,
876,0.004,,876,0,,
877,0.726,,877,0.68,,
878,0.424,,878,0.358,,
879,0.128,,879,0.152,,
880,0.962,,880,0.966,,
881,0.318,,881,0.418,,
882,0.098,,882,0.14,,
883,0.718,,883,0.706,,
884,0.252,,884,0.206,,
885,0.002,,885,0.002,,
886,0.028,,886,0.03,,
887,0.514,,887,0.532,,
888,0,,888,0,,
889,0.966,,889,1,,
890,0.822,,890,0.998,,
891,0.004,,891,0,,
892,0.858,,892,0.998,,
893,0.254,,893,0.306,,
894,0.546,,894,0.604,,
895,0.528,,895,0.562,,
896,0.962,,896,1,,
897,0.032,,897,0.05,,
898,0.918,,898,1,,
899,0.79,,899,0.754,,
900,0.742,,900,0.774,,
901,0.126,,901,0.136,,
902,0.544,,902,0.716,,
903,0.638,,903,0.538,,
904,0.07,,904,0.068,,
905,0.852,,905,0.89,,
906,0.066,,906,0.088,,
907,0.75,,907,0.788,,
908,0.794,,908,0.68,,
909,0.514,,909,0.58,,
910,0.024,,910,0.01,,
911,0.484,,911,0.302,,
912,0.334,,912,0.3,,
913,0.022,,913,0.012,,
914,0.04,,914,0.024,,
915,0.002,,915,0.002,,
916,0.042,,916,0.028,,
917,0.754,,917,1,,
918,0.758,,918,0.77,,
919,0.472,,919,0.606,,
920,0.884,,920,0.814,,
921,0.924,,921,1,,
922,0.418,,922,0.344,,
923,0.324,,923,0.468,,
924,0.692,,924,0.786,,
925,0.818,,925,0.968,,
926,0.084,,926,0.066,,
927,0.774,,927,1,,
928,0.88,,928,0.842,,
929,0.968,,929,1,,
930,0.87,,930,0.848,,
931,0.128,,931,0.06,,
932,0.078,,932,0.074,,
933,0.002,,933,0.012,,
934,0.006,,934,0.002,,
935,0.398,,935,0.38,,
936,0.004,,936,0,,
937,0.868,,937,0.88,,
938,0.026,,938,0.02,,
939,0.138,,939,0.086,,
940,0.114,,940,0.088,,
941,0,,941,0.002,,
942,0.01,,942,0.002,,
943,0.918,,943,1,,
944,0.632,,944,0.592,,
945,0.514,,945,0.522,,
946,0,,946,0.002,,
947,0.444,,947,0.616,,
948,0.914,,948,1,,
949,0.094,,949,0.094,,
950,0.832,,950,0.864,,
951,0.922,,951,1,,
952,0.29,,952,0.288,,
953,0.556,,953,0.548,,
954,0.912,,954,0.998,,
955,0.124,,955,0.096,,
956,0.822,,956,0.904,,
957,0.892,,957,1,,
958,0.684,,958,0.684,,
959,0.75,,959,0.796,,
960,0.472,,960,0.606,,
961,0.418,,961,0.344,,
962,0.24,,962,0.242,,
963,0.002,,963,0,,
964,0.024,,964,0.008,,
965,0.012,,965,0.012,,
966,0.88,,966,0.842,,
967,0.816,,967,0.79,,
968,0,,968,0.004,,
969,0.018,,969,0.026,,
970,0.642,,970,0.606,,
971,0.212,,971,0.298,,
972,0.096,,972,0.034,,
973,0.942,,973,1,,
974,0.006,,974,0.004,,
975,0.218,,975,0.364,,
976,0.002,,976,0,,
977,0.842,,977,0.828,,
978,0.62,,978,0.656,,
979,0.142,,979,0.154,,
980,0.004,,980,0,,
981,0.806,,981,1,,
982,0.718,,982,0.706,,
983,0.004,,983,0.008,,
984,0.65,,984,0.724,,
985,0.216,,985,0.28,,
986,0.778,,986,0.846,,
987,0.032,,987,0.04,,
988,0.03,,988,0.044,,
989,0.822,,989,1,,
990,0.006,,990,0.002,,
991,0.018,,991,0.01,,
992,0.056,,992,0.032,,
993,0.834,,993,1,,
994,0.052,,994,0.08,,
995,0.002,,995,0.004,,
996,0.718,,996,0.756,,
997,0.828,,997,0.888,,
998,0.254,,998,0.306,,
999,0.038,,999,0.052,,
1000,0.176,,1000,0.158,,
1001,0.002,,1001,0,,
1002,0.93,,1002,1,,
1003,0.926,,1003,1,,
1004,0.682,,1004,0.614,,
1005,0.3,,1005,0.03,,
1006,0.01,,1006,0.018,,
1007,0.006,,1007,0.002,,
1008,0.786,,1008,0.728,,
1009,0.708,,1009,0.75,,
1010,0.01,,1010,0,,
1011,0.916,,1011,1,,
1012,0.016,,1012,0.014,,
1013,0.596,,1013,0.664,,
1014,0.036,,1014,0.046,,
1015,0.674,,1015,0.726,,
1016,0.01,,1016,0,,
1017,0.822,,1017,1,,
1018,0,,1018,0.002,,
1019,0.046,,1019,0.18,,
1020,0.976,,1020,1,,
1021,0.136,,1021,0.004,,
1022,0.92,,1022,0.876,,
1023,0.03,,1023,0.022,,
1024,0.92,,1024,1,,
1025,0.298,,1025,0.212,,
1026,0.65,,1026,0.582,,
1027,0.874,,1027,0.994,,
1028,0.004,,1028,0,,
1029,0.664,,1029,0.548,,
1030,0.782,,1030,1,,
1031,0.732,,1031,0.81,,
1032,0.042,,1032,0.03,,
1033,0.188,,1033,0.012,,
1034,0.826,,1034,1,,
1035,0.04,,1035,0.032,,
1036,0.006,,1036,0.008,,
1037,0.928,,1037,0.886,,
1038,0.002,,1038,0.004,,
1039,0.978,,1039,1,,
1040,0.026,,1040,0.042,,
1041,0.086,,1041,0.072,,
1042,0.01,,1042,0.004,,
1043,0.866,,1043,0.996,,
1044,0.506,,1044,0.518,,
1045,0.932,,1045,0.998,,
1046,0.944,,1046,1,,
1047,0.2,,1047,0.234,,
1048,0.032,,1048,0.05,,
1049,0.592,,1049,0.46,,
1050,0.434,,1050,0.372,,
1051,0.036,,1051,0.02,,
1052,0.23,,1052,0.284,,
1053,0.136,,1053,0.12,,
1054,0.912,,1054,0.998,,
1055,0.744,,1055,0.718,,
1056,0.826,,1056,0.808,,
1057,0.65,,1057,0.716,,
1058,0.868,,1058,0.85,,
1059,0.032,,1059,0.05,,
1060,0.102,,1060,0.118,,
1061,0,,1061,0.002,,
1062,0.008,,1062,0.014,,
1063,0.948,,1063,1,,
1064,0.286,,1064,0.016,,
1065,0.122,,1065,0.11,,
1066,0.008,,1066,0.006,,
1067,0.762,,1067,0.698,,
1068,0.058,,1068,0.102,,
1069,0.1,,1069,0.11,,
1070,0.006,,1070,0.002,,
1071,0.004,,1071,0.002,,
1072,0.628,,1072,0.672,,
1073,0.938,,1073,0.918,,
1074,0.034,,1074,0.012,,
1075,0.968,,1075,0.99,,
1076,0.89,,1076,1,,
1077,0.938,,1077,1,,
1078,0.794,,1078,1,,
1079,0.076,,1079,0.084,,
1080,0.246,,1080,0.218,,
1081,0.912,,1081,0.996,,
1082,0.88,,1082,0.926,,
1083,0.138,,1083,0.14,,
1084,0.196,,1084,0.216,,
1085,0.028,,1085,0.082,,
1086,0.862,,1086,0.86,,
1087,0.012,,1087,0,,
1088,0.042,,1088,0.012,,
1089,0.938,,1089,0.954,,
1090,0.894,,1090,0.998,,
1091,0.742,,1091,0.998,,
1092,0.95,,1092,1,,
1093,0.014,,1093,0.01,,
1094,0.02,,1094,0,,
1095,0.778,,1095,0.808,,
1096,0.924,,1096,0.938,,
1097,0.684,,1097,0.684,,
1098,0.918,,1098,1,,
1099,0.794,,1099,0.716,,
1100,0.952,,1100,1,,
1101,0.034,,1101,0.044,,
1102,0.872,,1102,1,,
1103,0.79,,1103,0.824,,
1104,0.212,,1104,0.032,,
1105,0.144,,1105,0.178,,
1106,0.63,,1106,0.734,,
1107,0.844,,1107,0.806,,
1108,0.016,,1108,0.028,,
1109,0.862,,1109,0.92,,
1110,0.254,,1110,0.306,,
1111,0.668,,1111,0.722,,
1112,0.002,,1112,0.002,,
1113,0.832,,1113,0.876,,
1114,0.728,,1114,0.87,,
1115,0.004,,1115,0,,
1116,0.796,,1116,1,,
1117,0.918,,1117,0.918,,
1118,0.848,,1118,0.852,,
1119,0.892,,1119,0.874,,
1120,0.764,,1120,0.762,,
1121,0.48,,1121,0.554,,
1122,0.952,,1122,0.96,,
1123,0.94,,1123,1,,
1124,0.994,,1124,1,,
1125,0.772,,1125,0.728,,
1126,0.034,,1126,0.02,,
1127,0.808,,1127,0.998,,
1128,0.048,,1128,0.022,,
1129,0.824,,1129,0.998,,
1130,0.934,,1130,1,,
1131,0.754,,1131,0.77,,
1132,0.004,,1132,0.008,,
1133,0.298,,1133,0.248,,
1134,0.36,,1134,0.608,,
1135,0.49,,1135,0.452,,
1136,0.97,,1136,0.966,,
1137,0.358,,1137,0.404,,
1138,0.506,,1138,0.566,,
1139,0.5,,1139,0.47,,
1140,0.774,,1140,1,,
1141,0.038,,1141,0.024,,
1142,0.01,,1142,0.014,,
1143,0.042,,1143,0.038,,
1144,0.826,,1144,0.852,,
1145,0.932,,1145,0.998,,
1146,0.694,,1146,0.672,,
1147,0.246,,1147,0.298,,
1148,0.728,,1148,0.87,,
1149,0.004,,1149,0.02,,
1150,0.944,,1150,1,,
1151,0.788,,1151,0.996,,
1152,0.662,,1152,0.636,,
1153,0.952,,1153,0.96,,
1154,0.822,,1154,1,,
1155,0.018,,1155,0.016,,
1156,0.916,,1156,0.924,,
1157,0.83,,1157,0.812,,
1158,0.044,,1158,0.03,,
1159,0.286,,1159,0.016,,
1160,0,,1160,0,,
1161,0.962,,1161,1,,
1162,0.794,,1162,1,,
1163,0.248,,1163,0.214,,
1164,0.708,,1164,0.732,,
1165,0.662,,1165,0.754,,
1166,0.216,,1166,0.212,,
1167,0.964,,1167,0.95,,
1168,0.082,,1168,0.062,,
1169,0.872,,1169,1,,
1170,0.044,,1170,0.03,,
1171,0.402,,1171,0.262,,
1172,0.022,,1172,0.012,,
1173,0.002,,1173,0.012,,
1174,0.056,,1174,0.032,,
1175,0.924,,1175,1,,
1176,0.904,,1176,0.998,,
1177,0.864,,1177,0.998,,
1178,0.012,,1178,0.01,,
1179,0.28,,1179,0.214,,
1180,0.334,,1180,0.3,,
1181,0.892,,1181,1,,
1182,0.084,,1182,0.066,,
1183,0.908,,1183,0.942,,
1184,0.786,,1184,0.784,,
1185,0.938,,1185,1,,
1186,0.67,,1186,0.634,,
1187,0.02,,1187,0.014,,
1188,0.626,,1188,0.574,,
1189,0.03,,1189,0.014,,
1190,0.748,,1190,0.76,,
1191,0.47,,1191,0.492,,
1192,0.89,,1192,0.998,,
1193,0.022,,1193,0.014,,
1194,0.314,,1194,0.298,,
1195,0.632,,1195,0.566,,
1196,0.754,,1196,0.77,,
1197,0.848,,1197,0.996,,
1198,0.062,,1198,0.016,,
1199,0.416,,1199,0.366,,
1200,0.772,,1200,0.778,,
1201,0.042,,1201,0.034,,
1202,0.122,,1202,0.152,,
1203,0.024,,1203,0.01,,
1204,0.86,,1204,0.914,,
1205,0.012,,1205,0,,
1206,0.686,,1206,0.676,,
1207,0.524,,1207,0.434,,
1208,0.012,,1208,0.012,,
1209,0.854,,1209,1,,
1210,0.528,,1210,0.562,,
1211,0.748,,1211,0.812,,
1212,0.492,,1212,0.446,,
1213,0.916,,1213,0.924,,
1214,0.27,,1214,0.316,,
1215,0.934,,1215,1,,
1216,0.062,,1216,0.06,,
1217,0.88,,1217,0.88,,
1218,0.176,,1218,0.158,,
1219,0.91,,1219,0.994,,
1220,0.896,,1220,0.934,,
1221,0.018,,1221,0.024,,
1222,0.01,,1222,0,,
1223,0.02,,1223,0.018,,
1224,0.146,,1224,0.146,,
1225,0.012,,1225,0.018,,
1226,0,,1226,0.002,,
1227,0.728,,1227,0.582,,
1228,0.772,,1228,0.998,,
1229,0.01,,1229,0,,
1230,0.93,,1230,1,,
1231,0.536,,1231,0.48,,
1232,0.002,,1232,0.002,,
1233,0.828,,1233,0.998,,
1234,0.434,,1234,0.472,,
1235,0.268,,1235,0.232,,
1236,0.168,,1236,0.072,,
1237,0.002,,1237,0,,
1238,0.042,,1238,0.042,,
1239,0.016,,1239,0.014,,
1240,0.8,,1240,0.786,,
1241,0.196,,1241,0.198,,
1242,0.016,,1242,0.008,,
1243,0.86,,1243,0.884,,
1244,0.648,,1244,0.658,,
1245,0.86,,1245,0.828,,
1246,0.828,,1246,0.826,,
1247,0.32,,1247,0.326,,
1248,0.248,,1248,0.214,,
1249,0.95,,1249,0.996,,
1250,0.034,,1250,0.02,,
1251,0.822,,1251,1,,
1252,0.096,,1252,0.062,,
1253,0.044,,1253,0.048,,
1254,0.014,,1254,0.008,,
1255,0.154,,1255,0.172,,
1256,0.892,,1256,1,,
1257,0.862,,1257,0.844,,
1258,0.926,,1258,0.998,,
1259,0.044,,1259,0.05,,
1260,0.938,,1260,1,,
1261,0.818,,1261,0.968,,
1262,0.002,,1262,0,,
1263,0.33,,1263,0.324,,
1264,0.808,,1264,0.998,,
1265,0.004,,1265,0,,
1266,0.762,,1266,0.698,,
1267,0.002,,1267,0,,
1268,0.018,,1268,0.024,,
1269,0.918,,1269,1,,
1270,0.684,,1270,0.99,,
1271,0.22,,1271,0.258,,
1272,0.554,,1272,0.36,,
1273,0.818,,1273,0.968,,
1274,0.462,,1274,0.526,,
1275,0.004,,1275,0.002,,
1276,0.638,,1276,0.538,,
1277,0.776,,1277,0.844,,
1278,0.4,,1278,0.45,,
1279,0.562,,1279,0.53,,
1280,0.644,,1280,0.74,,
1281,0.03,,1281,0.034,,
1282,0.902,,1282,1,,
1283,0.028,,1283,0.03,,
1284,0.736,,1284,0.76,,
1285,0.536,,1285,0.48,,
1286,0.79,,1286,0.824,,
1287,0.096,,1287,0.05,,
1288,0.916,,1288,0.996,,
1289,0.444,,1289,0.39,,
1290,0.176,,1290,0.166,,
1291,0.882,,1291,1,,
1292,0.026,,1292,0.014,,
1293,0.776,,1293,0.758,,
1294,0.062,,1294,0.074,,
1295,0.19,,1295,0.246,,
1296,0.06,,1296,0.04,,
1297,0.016,,1297,0,,
1298,0.606,,1298,0.68,,
1299,0.916,,1299,0.996,,
1300,0.052,,1300,0.078,,
1301,0.374,,1301,0.418,,
1302,0.006,,1302,0,,
1303,0.24,,1303,0.218,,
1304,0.264,,1304,0.28,,
1305,0.522,,1305,0.522,,
1306,0.012,,1306,0.01,,
1307,0.032,,1307,0.014,,
1308,0.554,,1308,0.36,,
1309,0.924,,1309,1,,
1310,0.976,,1310,1,,
1311,0.954,,1311,1,,
1312,0.058,,1312,0.058,,
1313,0.862,,1313,0.92,,
1314,0.002,,1314,0.004,,
1315,0.886,,1315,0.898,,
1316,0.748,,1316,1,,
1317,0.866,,1317,0.996,,
1318,0.01,,1318,0.004,,
1319,0.922,,1319,0.998,,
1320,0.008,,1320,0.014,,
1321,0.064,,1321,0.048,,
1322,0.918,,1322,1,,
1323,0.016,,1323,0,,
1324,0.002,,1324,0,,
1325,0.81,,1325,0.788,,
1326,0.044,,1326,0.048,,
1327,0.002,,1327,0.004,,
1328,0.55,,1328,0.562,,
1329,0.078,,1329,0,,
1330,0.032,,1330,0.036,,
1331,0.016,,1331,0.008,,
1332,0.3,,1332,0.03,,
1333,0.916,,1333,0.926,,
1334,0.884,,1334,0.914,,
1335,0.008,,1335,0.004,,
1336,0.758,,1336,0.768,,
1337,0.524,,1337,0.53,,
1338,0.064,,1338,0.016,,
1339,0.47,,1339,0.492,,
1340,0.106,,1340,0.05,,
1341,0.904,,1341,1,,
1342,0.194,,1342,0.17,,
1343,0.836,,1343,0.85,,
1344,0.86,,1344,0.884,,
1345,0.87,,1345,0.848,,
1346,0.784,,1346,0.814,,
1347,0.516,,1347,0.548,,
1348,0.006,,1348,0,,
1349,0.016,,1349,0.002,,
1350,0.94,,1350,1,,
1351,0.266,,1351,0.038,,
1352,0.552,,1352,0.564,,
1353,0.01,,1353,0.006,,
1354,0.878,,1354,0.854,,
1355,0.004,,1355,0,,
1356,0.456,,1356,0.384,,
1357,0.906,,1357,0.888,,
1358,0.982,,1358,1,,
1359,0.032,,1359,0.05,,
1360,0.014,,1360,0.002,,
1361,0.868,,1361,0.994,,
1362,0,,1362,0.002,,
1363,0.076,,1363,0.042,,
1364,0.002,,1364,0,,
1365,0.002,,1365,0,,
1366,0.842,,1366,1,,
1367,0.032,,1367,0.04,,
1368,0.572,,1368,0.652,,
1369,0.532,,1369,0.474,,
1370,0.126,,1370,0.094,,
1371,0.756,,1371,0.786,,
1372,0.366,,1372,0.368,,
1373,0.938,,1373,0.918,,
1374,0.972,,1374,1,,
1375,0.176,,1375,0.166,,
1376,0.892,,1376,1,,
1377,0.528,,1377,0.562,,
1378,0.81,,1378,0.8,,
1379,0.816,,1379,1,,
1380,0.072,,1380,0.096,,
1381,0.946,,1381,1,,
1382,0.902,,1382,0.946,,
1383,0.748,,1383,0.796,,
1384,0.86,,1384,0.828,,
1385,0.264,,1385,0.224,,
1386,0.098,,1386,0.13,,
1387,0.948,,1387,1,,
1388,0.416,,1388,0.464,,
1389,0.014,,1389,0.012,,
1390,0.03,,1390,0.062,,
1391,0.674,,1391,0.698,,
1392,0.754,,1392,0.77,,
1393,0.392,,1393,0.322,,
1394,0.902,,1394,1,,
1395,0.954,,1395,0.988,,
1396,0.086,,1396,0.072,,
1397,0.894,,1397,1,,
1398,0.66,,1398,1,,
1399,0.694,,1399,0.594,,
1400,0.32,,1400,0.296,,
1401,0.286,,1401,0.016,,
1402,0.832,,1402,0.84,,
1403,0.92,,1403,0.876,,
1404,0.906,,1404,1,,
1405,0.316,,1405,0.366,,
1406,0.102,,1406,0.118,,
1407,0.646,,1407,0.518,,
1408,0.562,,1408,0.53,,
1409,0.296,,1409,0.308,,
1410,0.024,,1410,0,,
1411,0.538,,1411,0.544,,
1412,0.02,,1412,0.018,,
1413,0.032,,1413,0.036,,
1414,0.004,,1414,0.032,,
1415,0.02,,1415,0.028,,
1416,0.768,,1416,0.84,,
1417,0.86,,1417,1,,
1418,0,,1418,0.002,,
1419,0.224,,1419,0.196,,
1420,0.044,,1420,0.024,,
1421,0.92,,1421,1,,
1422,0.036,,1422,0.012,,
1423,0.692,,1423,0.658,,
1424,0.842,,1424,0.878,,
1425,0.968,,1425,1,,
1426,0.938,,1426,0.964,,
1427,0.694,,1427,0.988,,
1428,0.114,,1428,0.106,,
1429,0.032,,1429,0.036,,
1430,0.036,,1430,0.012,,
1431,0,,1431,0,,
1432,0.666,,1432,0.828,,
1433,0.012,,1433,0,,
1434,0.076,,1434,0.042,,
1435,0.716,,1435,0.754,,
1436,0.926,,1436,0.936,,
1437,0.856,,1437,1,,
1438,0.018,,1438,0.016,,
1439,0.646,,1439,0.548,,
1440,0.934,,1440,1,,
1441,0.194,,1441,0.17,,
1442,0.798,,1442,0.812,,
1443,0.078,,1443,0,,
1444,0.76,,1444,0.688,,
1445,0.02,,1445,0.02,,
1446,0.984,,1446,1,,
1447,0.006,,1447,0.002,,
1448,0.942,,1448,1,,
1449,0.018,,1449,0.016,,
1450,0.784,,1450,0.792,,
1451,0.916,,1451,0.924,,
1452,0.816,,1452,0.9,,
1453,0.02,,1453,0.01,,
1454,0.742,,1454,0.74,,
1455,0.03,,1455,0.014,,
1456,0.084,,1456,0.054,,
1457,0.06,,1457,0,,
1458,0.942,,1458,0.956,,
1459,0.028,,1459,0.054,,
1460,0.876,,1460,0.998,,
1461,0.108,,1461,0.138,,
1462,0.122,,1462,0.082,,
1463,0.83,,1463,0.812,,
1464,0.832,,1464,0.84,,
1465,0.954,,1465,1,,
1466,0.892,,1466,0.998,,
1467,0.904,,1467,0.906,,
1468,0.006,,1468,0,,
1469,0.062,,1469,0,,
1470,0.036,,1470,0.034,,
1471,0.694,,1471,0.62,,
1472,0.076,,1472,0.064,,
1473,0.704,,1473,0.738,,
1474,0.018,,1474,0.004,,
1475,0.036,,1475,0.006,,
1476,0.664,,1476,0.994,,
1477,0.708,,1477,0.672,,
1478,0.918,,1478,0.948,,
1479,0.004,,1479,0,,
1480,0.966,,1480,1,,
1481,0.026,,1481,0.032,,
1482,0.902,,1482,1,,
1483,0.508,,1483,0.5,,
1484,0.642,,1484,0.656,,
1485,0.03,,1485,0.014,,
1486,0.064,,1486,0.016,,
1487,0.006,,1487,0.002,,
1488,0.972,,1488,1,,
1489,0.016,,1489,0.012,,
1490,0.016,,1490,0.014,,
1491,0.944,,1491,1,,
1492,0.072,,1492,0.096,,
1493,0.734,,1493,1,,
1494,0.176,,1494,0.19,,
1495,0.746,,1495,0.658,,
1496,0.89,,1496,1,,
1497,0.014,,1497,0.006,,
1498,0.962,,1498,0.966,,
1499,0.67,,1499,0.634,,
1500,0.88,,1500,0.88,,
1501,0.944,,1501,1,,
1502,0.004,,1502,0.002,,
1503,0,,1503,0,,
1504,0.018,,1504,0.006,,
1505,0.716,,1505,0.838,,
1506,0.01,,1506,0.002,,
1507,0.96,,1507,0.998,,
1508,0.668,,1508,0.722,,
1509,0.898,,1509,0.998,,
1510,0.87,,1510,0.896,,
1511,0.128,,1511,0.152,,
1512,0.916,,1512,1,,
1513,0.806,,1513,0.8,,
1514,0.878,,1514,0.924,,
1515,0.89,,1515,1,,
1516,0.036,,1516,0.026,,
1517,0.034,,1517,0.02,,
1518,0.136,,1518,0.12,,
1519,0.018,,1519,0.02,,
1520,0.006,,1520,0,,
1521,0.008,,1521,0.006,,
1522,0.656,,1522,0.6,,
1523,0.868,,1523,0.85,,
1524,0.728,,1524,0.796,,
1525,0.39,,1525,0.376,,
1526,0.808,,1526,0.854,,
1527,0.262,,1527,0.366,,
1528,0.176,,1528,0.12,,
1529,0.988,,1529,1,,
1530,0.974,,1530,1,,
1531,0.788,,1531,0.996,,
1532,0.002,,1532,0,,
1533,0.1,,1533,0.106,,
1534,0.906,,1534,0.996,,
1535,0.758,,1535,0.81,,
1536,0.022,,1536,0.014,,
1537,0.972,,1537,1,,
1538,0.134,,1538,0.114,,
1539,0.902,,1539,1,,
1540,0.026,,1540,0.016,,
1541,0.022,,1541,0.02,,
1542,0.004,,1542,0.004,,
1543,0.026,,1543,0.022,,
1544,0.052,,1544,0.062,,
1545,0.954,,1545,1,,
1546,0.142,,1546,0.154,,
1547,0.08,,1547,0.06,,
1548,0.32,,1548,0.32,,
1549,0.01,,1549,0.014,,
1550,0.004,,1550,0.002,,
1551,0.002,,1551,0,,
1552,0.374,,1552,0.452,,
1553,0.67,,1553,0.682,,
1554,0.192,,1554,0.132,,
1555,0.038,,1555,0.028,,
1556,0.152,,1556,0.18,,
1557,0.922,,1557,0.958,,
1558,0,,1558,0.004,,
1559,0.518,,1559,0.556,,
1560,0.92,,1560,0.89,,
1561,0.004,,1561,0.004,,
1562,0.342,,1562,0.31,,
1563,0.942,,1563,1,,
1564,0.852,,1564,0.88,,
1565,0.922,,1565,1,,
1566,0.012,,1566,0.012,,
1567,0.86,,1567,0.996,,
1568,0.922,,1568,1,,
1569,0.922,,1569,1,,
1570,0.022,,1570,0.036,,
1571,0.754,,1571,0.816,,
1572,0.632,,1572,0.722,,
1573,0.252,,1573,0.232,,
1574,0,,1574,0.002,,
1575,0.922,,1575,1,,
1576,0.656,,1576,0.71,,
1577,0.922,,1577,0.998,,
1578,0.54,,1578,0.602,,
1579,0.03,,1579,0.014,,
1580,0.65,,1580,0.724,,
1581,0.078,,1581,0.074,,
1582,0.742,,1582,0.74,,
1583,0.986,,1583,1,,
1584,0.06,,1584,0,,
1585,0.868,,1585,0.994,,
1586,0.042,,1586,0.046,,
1587,0.858,,1587,0.892,,
1588,0.466,,1588,0.584,,
1589,0.904,,1589,1,,
1590,0.604,,1590,0.604,,
1591,0.926,,1591,1,,
1592,0.834,,1592,1,,
1593,0.016,,1593,0.004,,
1594,0.95,,1594,0.998,,
1595,0.418,,1595,0.344,,
1596,0.78,,1596,0.798,,
1597,0.504,,1597,0.538,,
1598,0.95,,1598,1,,
1599,0.42,,1599,0.26,,
1600,0.046,,1600,0.02,,
1601,0.936,,1601,0.942,,
1602,0.266,,1602,0.326,,
1603,0.06,,1603,0.026,,
1604,0.894,,1604,1,,
1605,0.01,,1605,0.002,,
1606,0.014,,1606,0,,
1607,0.79,,1607,0.874,,
1608,0.834,,1608,1,,
1609,0.004,,1609,0,,
1610,0.424,,1610,0.358,,
1611,0.032,,1611,0.012,,
1612,0.08,,1612,0.152,,
1613,0.658,,1613,0.684,,
1614,0.644,,1614,0.764,,
1615,0.522,,1615,0.522,,
1616,0.152,,1616,0.18,,
1617,0.008,,1617,0.004,,
1618,0.868,,1618,0.824,,
1619,0.972,,1619,1,,
1620,0.724,,1620,0.714,,
1621,0.704,,1621,0.738,,
1622,0.954,,1622,0.988,,
1623,0.792,,1623,0.796,,
1624,0.078,,1624,0.012,,
1625,0.67,,1625,0.682,,
1626,0.026,,1626,0,,
1627,0.67,,1627,0.682,,
1628,0.004,,1628,0,,
1629,0.186,,1629,0.15,,
1630,0.018,,1630,0.012,,
1631,0.02,,1631,0.006,,
1632,0.022,,1632,0.01,,
1633,0.606,,1633,0.68,,
1634,0.02,,1634,0.018,,
1635,0.95,,1635,0.948,,
1636,0.864,,1636,0.998,,
1637,0.95,,1637,0.998,,
1638,0.966,,1638,0.998,,
1639,0,,1639,0.004,,
1640,0.932,,1640,0.998,,
1641,0.652,,1641,0.708,,
1642,0.864,,1642,0.878,,
1643,0.128,,1643,0.152,,
1644,0.022,,1644,0.012,,
1645,0.948,,1645,1,,
1646,0.758,,1646,0.768,,
1647,0.844,,1647,0.84,,
1648,0.728,,1648,0.87,,
1649,0.944,,1649,1,,
1650,0.76,,1650,0.688,,
1651,0.232,,1651,0.184,,
1652,0.652,,1652,0.708,,
1653,0,,1653,0,,
1654,0.96,,1654,0.974,,
1655,0.754,,1655,0.816,,
1656,0.68,,1656,1,,
1657,0.366,,1657,0.368,,
1658,0.942,,1658,1,,
1659,0.79,,1659,0.874,,
1660,0.84,,1660,0.874,,
1661,0.234,,1661,0.19,,
1662,0,,1662,0.002,,
1663,0.918,,1663,1,,
1664,0.404,,1664,0.354,,
1665,0.006,,1665,0.002,,
1666,0.848,,1666,1,,
1667,0.222,,1667,0.174,,
1668,0.004,,1668,0.004,,
1669,0.944,,1669,0.978,,
1670,0.858,,1670,0.836,,
1671,0.606,,1671,0.662,,
1672,0.202,,1672,0.216,,
1673,0.01,,1673,0.006,,
1674,0.842,,1674,0.884,,
1675,0.002,,1675,0.004,,
1676,0.79,,1676,0.754,,
1677,0.232,,1677,0.184,,
1678,0.77,,1678,0.882,,
1679,0.022,,1679,0.012,,
1680,0.798,,1680,0.812,,
1681,0.922,,1681,0.958,,
1682,0.144,,1682,0.08,,
1683,0.816,,1683,1,,
1684,0.18,,1684,0.016,,
1685,0.74,,1685,1,,
1686,0.668,,1686,0.64,,
1687,0.028,,1687,0.054,,
1688,0.4,,1688,0.282,,
1689,0.876,,1689,0.998,,
1690,0.044,,1690,0.024,,
1691,0.46,,1691,0.352,,
1692,0.37,,1692,0.338,,
1693,0.152,,1693,0.12,,
1694,0.598,,1694,0.538,,
1695,0.152,,1695,0.19,,
1696,0.878,,1696,0.924,,
1697,0.796,,1697,0.82,,
1698,0.004,,1698,0.004,,
1699,0.866,,1699,0.892,,
1700,0.096,,1700,0.05,,
1701,0.016,,1701,0.01,,
1702,0.05,,1702,0.068,,
1703,0.628,,1703,0.672,,
1704,0.294,,1704,0.276,,
1705,0.522,,1705,0.544,,
1706,0.87,,1706,0.848,,
1707,0.652,,1707,0.62,,
1708,0.092,,1708,0.094,,
1709,0.078,,1709,0.074,,
1710,0.02,,1710,0.008,,
1711,0.942,,1711,1,,
1712,0.692,,1712,0.788,,
1713,0.964,,1713,1,,
1714,0.476,,1714,0.556,,
1715,0.946,,1715,1,,
1716,0.722,,1716,0.72,,
1717,0.646,,1717,0.518,,
1718,0.976,,1718,0.974,,
1719,0.722,,1719,0.674,,
1720,0.036,,1720,0.02,,
1721,0.794,,1721,0.716,,
1722,0.254,,1722,0.306,,
1723,0.42,,1723,0.26,,
1724,0.676,,1724,0.69,,
1725,0.046,,1725,0.18,,
1726,0.86,,1726,0.9,,
1727,0.904,,1727,1,,
1728,0.54,,1728,0.53,,
1729,0.264,,1729,0.282,,
1730,0.96,,1730,1,,
1731,0.512,,1731,0.466,,
1732,0.122,,1732,0.088,,
1733,0.918,,1733,1,,
1734,0.014,,1734,0.022,,
1735,0.816,,1735,0.924,,
1736,0.67,,1736,0.696,,
1737,0.422,,1737,0.326,,
1738,0.006,,1738,0.006,,
1739,0.958,,1739,1,,
1740,0.334,,1740,0.3,,
1741,0.912,,1741,1,,
1742,0.004,,1742,0.004,,
1743,0.092,,1743,0.032,,
1744,0.948,,1744,1,,
1745,0.966,,1745,0.996,,
1746,0.672,,1746,0.978,,
1747,0.104,,1747,0.096,,
1748,0.03,,1748,0.018,,
1749,0.614,,1749,0.578,,
1750,0.46,,1750,0.352,,
1751,0.24,,1751,0.29,,
1752,0.024,,1752,0.018,,
1753,0.048,,1753,0.06,,
1754,0.302,,1754,0.342,,
1755,0.742,,1755,0.756,,
1756,0.806,,1756,1,,
1757,0.892,,1757,1,,
1758,0.932,,1758,1,,
1759,0.274,,1759,0.284,,
1760,0.95,,1760,0.998,,
1761,0.006,,1761,0.006,,
1762,0.464,,1762,0.376,,
1763,0.174,,1763,0.138,,
1764,0.026,,1764,0.014,,
1765,0.022,,1765,0.02,,
1766,0.622,,1766,0.682,,
1767,0.898,,1767,0.998,,
1768,0.024,,1768,0.01,,
1769,0.972,,1769,1,,
1770,0.458,,1770,0.64,,
1771,0.01,,1771,0.008,,
1772,0.792,,1772,0.796,,
1773,0.864,,1773,0.998,,
1774,0.91,,1774,0.928,,
1775,0.014,,1775,0.004,,
1776,0.41,,1776,0.334,,
1777,0.022,,1777,0.016,,
1778,0.01,,1778,0.002,,
1779,0,,1779,0,,
1780,0.984,,1780,1,,
1781,0.772,,1781,0.778,,
1782,0.028,,1782,0.028,,
1783,0.248,,1783,0.262,,
1784,0.48,,1784,0.554,,
1785,0.934,,1785,1,,
1786,0.148,,1786,0.096,,
1787,0.102,,1787,0.118,,
1788,0.812,,1788,0.796,,
1789,0.896,,1789,0.924,,
1790,0.098,,1790,0.14,,
1791,0.406,,1791,0.43,,
1792,0.894,,1792,0.866,,
1793,0.654,,1793,0.602,,
1794,0.604,,1794,0.604,,
1795,0.43,,1795,0.438,,
1796,0.01,,1796,0,,
1797,0.014,,1797,0,,
1798,0.856,,1798,0.89,,
1799,0.004,,1799,0,,
1800,0.966,,1800,1,,
1801,0.888,,1801,0.998,,
1802,0.032,,1802,0.016,,
1803,0.4,,1803,0.396,,
1804,0.216,,1804,0.17,,
1805,0.836,,1805,0.85,,
1806,0.51,,1806,0.424,,
1807,0.08,,1807,0.088,,
1808,0.632,,1808,0.638,,
1809,0.956,,1809,1,,
1810,0.786,,1810,0.82,,
1811,0.026,,1811,0.018,,
1812,0.066,,1812,0.088,,
1813,0.064,,1813,0.008,,
1814,0.886,,1814,0.898,,
1815,0.014,,1815,0.01,,
1816,0.32,,1816,0.326,,
1817,0.014,,1817,0.018,,
1818,0.038,,1818,0.02,,
1819,0.748,,1819,0.786,,
1820,0.104,,1820,0.118,,
1821,0.046,,1821,0.018,,
1822,0.922,,1822,0.924,,
1823,0.814,,1823,1,,
1824,0.254,,1824,0.104,,
1825,0.198,,1825,0.222,,
1826,0.004,,1826,0.006,,
1827,0.006,,1827,0,,
1828,0.036,,1828,0.034,,
1829,0.672,,1829,0.978,,
1830,0.992,,1830,1,,
1831,0.064,,1831,0.008,,
1832,0.314,,1832,0.368,,
1833,0.762,,1833,0.668,,
1834,0.01,,1834,0,,
1835,0.114,,1835,0.112,,
1836,0.01,,1836,0.002,,
1837,0.514,,1837,0.522,,
1838,0,,1838,0,,
1839,0.876,,1839,0.998,,
1840,0.294,,1840,0.236,,
1841,0.728,,1841,0.582,,
1842,0.004,,1842,0.002,,
1843,0.74,,1843,1,,
1844,0.886,,1844,1,,
1845,0.088,,1845,0.06,,
1846,0.004,,1846,0.002,,
1847,0.014,,1847,0.012,,
1848,0.976,,1848,1,,
1849,0.006,,1849,0,,
1850,0.012,,1850,0.012,,
1851,0.122,,1851,0.138,,
1852,0.012,,1852,0.008,,
1853,0.3,,1853,0.302,,
1854,0.93,,1854,0.952,,
1855,0.03,,1855,0.034,,
1856,0.366,,1856,0.202,,
1857,0.912,,1857,0.89,,
1858,0.008,,1858,0.016,,
1859,0.804,,1859,0.768,,
1860,0.016,,1860,0.002,,
1861,0.088,,1861,0.06,,
1862,0.876,,1862,1,,
1863,0.014,,1863,0,,
1864,0.806,,1864,1,,
1865,0.756,,1865,0.736,,
1866,0.012,,1866,0.004,,
1867,0.876,,1867,1,,
1868,0.912,,1868,0.996,,
1869,0.878,,1869,1,,
1870,0.014,,1870,0,,
1871,0.664,,1871,1,,
1872,0.762,,1872,0.698,,
1873,0.78,,1873,0.798,,
1874,0.634,,1874,0.672,,
1875,0.042,,1875,0.028,,
1876,0.122,,1876,0.088,,
1877,0.964,,1877,0.982,,
1878,0.18,,1878,0.12,,
1879,0.096,,1879,0.076,,
1880,0.958,,1880,1,,
1881,0.946,,1881,1,,
1882,0.218,,1882,0.364,,
1883,0.012,,1883,0.022,,
1884,0.79,,1884,0.824,,
1885,0.842,,1885,0.816,,
1886,0.082,,1886,0.062,,
1887,0.718,,1887,0.998,,
1888,0.8,,1888,0.844,,
1889,0.912,,1889,0.89,,
1890,0.004,,1890,0.004,,
1891,0.1,,1891,0,,
1892,0.644,,1892,1,,
1893,0.02,,1893,0.006,,
1894,0.556,,1894,0.538,,
1895,0.002,,1895,0,,
1896,0.024,,1896,0.01,,
1897,0.794,,1897,0.794,,
1898,0.648,,1898,0.53,,
1899,0.102,,1899,0.118,,
1900,0.006,,1900,0.002,,
1901,0.718,,1901,0.82,,
1902,0.016,,1902,0.016,,
1903,0,,1903,0.002,,
1904,0.918,,1904,0.928,,
1905,0.01,,1905,0,,
1906,0.868,,1906,0.85,,
1907,0.538,,1907,0.544,,
1908,0.65,,1908,1,,
1909,0.8,,1909,0.844,,
1910,0.562,,1910,0.53,,
1911,0.256,,1911,0.312,,
1912,0.298,,1912,0.248,,
1913,0.01,,1913,0.008,,
1914,0.47,,1914,0.492,,
1915,0.002,,1915,0,,
1916,0.808,,1916,0.792,,
1917,0.208,,1917,0.028,,
1918,0.572,,1918,0.548,,
1919,0.056,,1919,0.05,,
1920,0.028,,1920,0.018,,
1921,0.024,,1921,0.014,,
1922,0.006,,1922,0,,
1923,0.01,,1923,0.012,,
1924,0.014,,1924,0,,
1925,0.032,,1925,0.044,,
1926,0.884,,1926,0.944,,
1927,0.866,,1927,0.892,,
1928,0.032,,1928,0.012,,
1929,0.022,,1929,0.026,,
1930,0.804,,1930,0.786,,
1931,0.924,,1931,0.998,,
1932,0.002,,1932,0.012,,
1933,0.01,,1933,0.01,,
1934,0.878,,1934,1,,
1935,0.002,,1935,0.004,,
1936,0.728,,1936,0.582,,
1937,0.718,,1937,0.82,,
1938,0.914,,1938,1,,
1939,0.922,,1939,0.924,,
1940,0.976,,1940,1,,
1941,0.92,,1941,0.876,,
1942,0.934,,1942,1,,
1943,0.734,,1943,0.694,,
1944,0.266,,1944,0.038,,
1945,0.058,,1945,0.07,,
1946,0.41,,1946,0.334,,
1947,0.924,,1947,1,,
1948,0.076,,1948,0.084,,
1949,0.692,,1949,0.788,,
1950,0.79,,1950,0.824,,
1951,0.358,,1951,0.404,,
1952,0.024,,1952,0.018,,
1953,0.912,,1953,0.89,,
1954,0.39,,1954,0.176,,
1955,0.658,,1955,0.7,,
1956,0.606,,1956,0.604,,
1957,0.738,,1957,0.754,,
1958,0.022,,1958,0.012,,
1959,0.792,,1959,0.832,,
1960,0.02,,1960,0.008,,
1961,0.786,,1961,0.862,,
1962,0.674,,1962,0.676,,
1963,0.868,,1963,0.946,,
1964,0.828,,1964,0.814,,
1965,0.944,,1965,1,,
1966,0.138,,1966,0.14,,
1967,0.84,,1967,0.832,,
1968,0.306,,1968,0.394,,
1969,0.962,,1969,0.966,,
1970,0.898,,1970,0.998,,
1971,0.08,,1971,0.152,,
1972,0.848,,1972,0.786,,
1973,0.916,,1973,1,,
1974,0.096,,1974,0.076,,
1975,0.008,,1975,0,,
1976,0.082,,1976,0.054,,
1977,0.974,,1977,0.988,,
1978,0.318,,1978,0.418,,
1979,0.894,,1979,1,,
1980,0.052,,1980,0.014,,
1981,0.702,,1981,0.67,,
1982,0.01,,1982,0.006,,
1983,0.02,,1983,0.016,,
1984,0.004,,1984,0.004,,
1985,0.012,,1985,0.012,,
1986,0.602,,1986,0.55,,
1987,0.314,,1987,0.458,,
1988,0.944,,1988,0.978,,
1989,0.262,,1989,0.366,,
1990,0.904,,1990,1,,
1991,0.006,,1991,0,,
1992,0.784,,1992,0.828,,
1993,0.03,,1993,0.014,,
1994,0.744,,1994,0.996,,
1995,0.984,,1995,1,,
1996,0.014,,1996,0.012,,
1997,0.068,,1997,0.06,,
1998,0.646,,1998,0.518,,
1999,0.916,,1999,0.996,,
2000,0.056,,2000,0.032,,
2001,0.878,,2001,1,,
2002,0.766,,2002,0.758,,
2003,0.008,,2003,0.006,,
2004,0.196,,2004,0.198,,
2005,0.016,,2005,0.012,,
2006,0.346,,2006,0.378,,
2007,0.342,,2007,0.304,,
2008,0.812,,2008,1,,
2009,0.448,,2009,0.592,,
2010,0.388,,2010,0.318,,
2011,0.742,,2011,0.75,,
2012,0.66,,2012,0.686,,
2013,0.046,,2013,0.02,,
2014,0.298,,2014,0.004,,
2015,0.876,,2015,1,,
2016,0.908,,2016,1,,
2017,0.916,,2017,0.938,,
2018,0.776,,2018,0.996,,
2019,0.674,,2019,0.996,,
2020,0.97,,2020,1,,
2021,0.808,,2021,0.994,,
2022,0.12,,2022,0.076,,
2023,0.88,,2023,0.842,,
2024,0.16,,2024,0.1,,
2025,0.792,,2025,0.996,,
2026,0.036,,2026,0.046,,
2027,0.014,,2027,0.004,,
2028,0.116,,2028,0.092,,
2029,0.046,,2029,0.02,,
2030,0.756,,2030,0.736,,
2031,0.782,,2031,0.784,,
2032,0.634,,2032,0.672,,
2033,0,,2033,0.002,,
2034,0.028,,2034,0.054,,
2035,0.014,,2035,0.002,,
2036,0.55,,2036,0.528,,
2037,0.866,,2037,0.998,,
2038,0.764,,2038,0.848,,
2039,0.096,,2039,0.076,,
2040,0.392,,2040,0.322,,
2041,0.208,,2041,0.028,,
2042,0.132,,2042,0.14,,
2043,0.988,,2043,1,,
2044,0.592,,2044,0.594,,
2045,0.09,,2045,0.1,,
2046,0.006,,2046,0.002,,
2047,0.158,,2047,0.156,,
2048,0.134,,2048,0.114,,
2049,0.464,,2049,0.6,,
2050,0.716,,2050,0.986,,
2051,0.992,,2051,1,,
2052,0.89,,2052,0.998,,
2053,0.662,,2053,0.636,,
2054,0.994,,2054,1,,
2055,0.904,,2055,1,,
2056,0.306,,2056,0.356,,
2057,0.212,,2057,0.032,,
2058,0.028,,2058,0.018,,
2059,0.88,,2059,1,,
2060,0.28,,2060,0.214,,
2061,0.228,,2061,0.274,,
2062,0.772,,2062,0.778,,
2063,0.81,,2063,0.788,,
2064,0.658,,2064,0.718,,
2065,0.858,,2065,0.892,,
2066,0.95,,2066,0.998,,
2067,0.5,,2067,0.47,,
2068,0.026,,2068,0.016,,
2069,0.012,,2069,0.012,,
2070,0.3,,2070,0.302,,
2071,0.958,,2071,0.962,,
2072,0.068,,2072,0.03,,
2073,0.064,,2073,0.016,,
2074,0.646,,2074,0.548,,
2075,0.012,,2075,0.01,,
2076,0.888,,2076,1,,
2077,0.834,,2077,1,,
2078,0.664,,2078,0.994,,
2079,0.774,,2079,1,,
2080,0.832,,2080,0.888,,
2081,0.68,,2081,0.72,,
2082,0.022,,2082,0.01,,
2083,0.866,,2083,0.892,,
2084,0.046,,2084,0.048,,
2085,0.23,,2085,0.284,,
2086,0.828,,2086,0.814,,
2087,0.012,,2087,0.012,,
2088,0.01,,2088,0.002,,
2089,0.4,,2089,0.396,,
2090,0.828,,2090,0.834,,
2091,0.028,,2091,0.016,,
2092,0.026,,2092,0.016,,
2093,0.784,,2093,0.996,,
2094,0.266,,2094,0.276,,
2095,0.416,,2095,0.362,,
2096,0.01,,2096,0.004,,
2097,0.136,,2097,0.088,,
2098,0.86,,2098,0.9,,
2099,0.004,,2099,0.004,,
2100,0.912,,2100,1,,
2101,0.964,,2101,1,,
2102,0.944,,2102,1,,
2103,0.766,,2103,0.758,,
2104,0.494,,2104,0.582,,
2105,0.748,,2105,0.732,,
2106,0.826,,2106,1,,
2107,0.01,,2107,0,,
2108,0.592,,2108,0.46,,
2109,0.966,,2109,1,,
2110,0.174,,2110,0.218,,
2111,0.866,,2111,0.996,,
2112,0.232,,2112,0.23,,
2113,0.102,,2113,0.138,,
2114,0.692,,2114,0.788,,
2115,0.318,,2115,0.476,,
2116,0.068,,2116,0.06,,
